dump.vcd
$date
	Mon Feb 19 04:23:50 2024
$end

$version
	Synopsys VCS version S-2021.09
$end

$timescale
	1ns
$end

$comment Csum: 1 acbdbc17d21b2bc2 $end


$scope module tbench_top $end
$var reg 1 ! clk $end
$var reg 1 " reset $end

$scope module intf $end
$var reg 1 # clk $end
$var reg 1 $ reset $end
$var reg 1 % operands_val [0:0] $end
$var reg 16 & A_in [15:0] $end
$var reg 16 ' B_in [15:0] $end
$var reg 1 ( ack_rcvd [0:0] $end
$var reg 1 ) gcd_valid $end
$var reg 16 * gcd_out [15:0] $end
$var reg 1 + ready $end
$upscope $end


$scope module DUT $end
$var wire 1 , clk $end
$var wire 1 - reset $end
$var wire 1 . operands_val $end
$var wire 16 / A_in [15:0] $end
$var wire 16 0 B_in [15:0] $end
$var wire 1 1 ack_rcvd $end
$var reg 1 2 gcd_valid $end
$var wire 16 3 gcd_out [15:0] $end
$var reg 1 4 ready $end
$var reg 2 5 state [1:0] $end
$var reg 2 6 state_next [1:0] $end
$var wire 16 7 B_mux_out [15:0] $end
$var reg 16 8 A_mux_out [15:0] $end
$var wire 1 9 A_lt_B $end
$var wire 1 : B_eq_zero $end
$var reg 1 ; A_en $end
$var reg 1 < B_en $end
$var wire 16 = sub_out [15:0] $end
$var reg 16 > A [15:0] $end
$var reg 16 ? B [15:0] $end
$var reg 2 @ A_mux_sel [1:0] $end
$var reg 1 A B_mux_sel $end
$upscope $end

$upscope $end

$enddefinitions $end

#0
$dumpvars
0!
1"
bxxxxxxxxxxxxxxxx *
b0000000000000000 '
b0000000000000000 &
x;
x9
x<
x:
xA
x2
x4
bxxxxxxxxxxxxxxxx >
bxxxxxxxxxxxxxxxx 8
bxx @
bxxxxxxxxxxxxxxxx ?
bxxxxxxxxxxxxxxxx 7
bxx 5
bxx 6
bxxxxxxxxxxxxxxxx =
b0000000000000000 /
b0000000000000000 0
bxxxxxxxxxxxxxxxx 3
01
0,
0.
1-
0#
1$
0(
x)
0%
x+
$end
#5
1!
1#
1,
b00 5
b00 6
1;
1<
02
0)
0A
b00 @
14
1+
b0000000000000000 7
b0000000000000000 8
#10
0"
0$
0-
0!
0#
0,
#15
1!
1#
1,
b0000000000000000 >
b0000000000000000 3
b0000000000000000 *
b0000000000000000 ?
1:
09
b0000000000000000 =
b0000001011101111 &
b0000001011101111 /
b0000000000101001 '
b0000000000101001 0
1%
1.
1(
11
b0000001011101111 8
b0000000000101001 7
b01 6
#20
0!
0#
0,
#25
1!
1#
1,
b0000001011101111 >
b0000001011101111 3
b0000001011101111 *
b0000001011101111 =
b0000000000101001 ?
0:
b0000001011000110 =
b01 5
0<
b10 @
b0000001011000110 8
#30
0!
0#
0,
#35
1!
1#
1,
b0000001011000110 >
b0000001011000110 3
b0000001011000110 *
b0000001010011101 =
b0000001010011101 8
#40
0!
0#
0,
#45
1!
1#
1,
b0000001010011101 >
b0000001010011101 3
b0000001010011101 *
b0000001001110100 =
b0000001001110100 8
#50
0!
0#
0,
#55
1!
1#
1,
b0000001001110100 >
b0000001001110100 3
b0000001001110100 *
b0000001001001011 =
b0000001001001011 8
#60
0!
0#
0,
#65
1!
1#
1,
b0000001001001011 >
b0000001001001011 3
b0000001001001011 *
b0000001000100010 =
b0000001000100010 8
#70
0!
0#
0,
#75
1!
1#
1,
b0000001000100010 >
b0000001000100010 3
b0000001000100010 *
b0000000111111001 =
b0000000111111001 8
#80
0!
0#
0,
#85
1!
1#
1,
b0000000111111001 >
b0000000111111001 3
b0000000111111001 *
b0000000111010000 =
b0000000111010000 8
#90
0!
0#
0,
#95
1!
1#
1,
b0000000111010000 >
b0000000111010000 3
b0000000111010000 *
b0000000110100111 =
b0000000110100111 8
#100
0!
0#
0,
#105
1!
1#
1,
b0000000110100111 >
b0000000110100111 3
b0000000110100111 *
b0000000101111110 =
b0000000101111110 8
#110
0!
0#
0,
#115
1!
1#
1,
b0000000101111110 >
b0000000101111110 3
b0000000101111110 *
b0000000101010101 =
b0000000101010101 8
#120
0!
0#
0,
#125
1!
1#
1,
b0000000101010101 >
b0000000101010101 3
b0000000101010101 *
b0000000100101100 =
b0000000100101100 8
#130
0!
0#
0,
#135
1!
1#
1,
b0000000100101100 >
b0000000100101100 3
b0000000100101100 *
b0000000100000011 =
b0000000100000011 8
#140
0!
0#
0,
#145
1!
1#
1,
b0000000100000011 >
b0000000100000011 3
b0000000100000011 *
b0000000011011010 =
b0000000011011010 8
#150
0!
0#
0,
#155
1!
1#
1,
b0000000011011010 >
b0000000011011010 3
b0000000011011010 *
b0000000010110001 =
b0000000010110001 8
#160
0!
0#
0,
#165
1!
1#
1,
b0000000010110001 >
b0000000010110001 3
b0000000010110001 *
b0000000010001000 =
b0000000010001000 8
#170
0!
0#
0,
#175
1!
1#
1,
b0000000010001000 >
b0000000010001000 3
b0000000010001000 *
b0000000001011111 =
b0000000001011111 8
#180
0!
0#
0,
#185
1!
1#
1,
b0000000001011111 >
b0000000001011111 3
b0000000001011111 *
b0000000000110110 =
b0000000000110110 8
#190
0!
0#
0,
#195
1!
1#
1,
b0000000000110110 >
b0000000000110110 3
b0000000000110110 *
b0000000000001101 =
b0000000000001101 8
#200
0!
0#
0,
#205
1!
1#
1,
b0000000000001101 >
b0000000000001101 3
b0000000000001101 *
19
b1111111111100100 =
1<
1A
b01 @
b0000000000101001 8
b0000000000001101 7
#210
0!
0#
0,
#215
1!
1#
1,
b0000000000101001 >
b0000000000101001 3
b0000000000101001 *
09
b0000000000000000 =
b0000000000001101 ?
b0000000000011100 =
0<
b10 @
b0000000000011100 8
b0000000000101001 7
#220
0!
0#
0,
#225
1!
1#
1,
b0000000000011100 >
b0000000000011100 3
b0000000000011100 *
b0000000000001111 =
b0000000000001111 8
b0000000000011100 7
#230
0!
0#
0,
#235
1!
1#
1,
b0000000000001111 >
b0000000000001111 3
b0000000000001111 *
b0000000000000010 =
b0000000000000010 8
b0000000000001111 7
#240
0!
0#
0,
#245
1!
1#
1,
b0000000000000010 >
b0000000000000010 3
b0000000000000010 *
19
b1111111111110101 =
1<
b01 @
b0000000000001101 8
b0000000000000010 7
#250
0!
0#
0,
#255
1!
1#
1,
b0000000000001101 >
b0000000000001101 3
b0000000000001101 *
09
b0000000000000000 =
b0000000000000010 ?
b0000000000001011 =
0<
b10 @
b0000000000001011 8
b0000000000001101 7
#260
0!
0#
0,
#265
1!
1#
1,
b0000000000001011 >
b0000000000001011 3
b0000000000001011 *
b0000000000001001 =
b0000000000001001 8
b0000000000001011 7
#270
0!
0#
0,
#275
1!
1#
1,
b0000000000001001 >
b0000000000001001 3
b0000000000001001 *
b0000000000000111 =
b0000000000000111 8
b0000000000001001 7
#280
0!
0#
0,
#285
1!
1#
1,
b0000000000000111 >
b0000000000000111 3
b0000000000000111 *
b0000000000000101 =
b0000000000000101 8
b0000000000000111 7
#290
0!
0#
0,
#295
1!
1#
1,
b0000000000000101 >
b0000000000000101 3
b0000000000000101 *
b0000000000000011 =
b0000000000000011 8
b0000000000000101 7
#300
0!
0#
0,
#305
1!
1#
1,
b0000000000000011 >
b0000000000000011 3
b0000000000000011 *
b0000000000000001 =
b0000000000000001 8
b0000000000000011 7
#310
0!
0#
0,
#315
1!
1#
1,
b0000000000000001 >
b0000000000000001 3
b0000000000000001 *
19
b1111111111111111 =
1<
b01 @
b0000000000000010 8
b0000000000000001 7
#320
0!
0#
0,
#325
1!
1#
1,
b0000000000000010 >
b0000000000000010 3
b0000000000000010 *
09
b0000000000000000 =
b0000000000000001 ?
b0000000000000001 =
0<
b10 @
b0000000000000001 8
b0000000000000010 7
#330
0!
0#
0,
#335
1!
1#
1,
b0000000000000001 >
b0000000000000001 3
b0000000000000001 *
b0000000000000000 =
b0000000000000000 8
b0000000000000001 7
#340
0!
0#
0,
#345
1!
1#
1,
b0000000000000000 >
b0000000000000000 3
b0000000000000000 *
19
b1111111111111111 =
1<
b01 @
b0000000000000001 8
b0000000000000000 7
#350
0!
0#
0,
#355
1!
1#
1,
b0000000000000001 >
b0000000000000001 3
b0000000000000001 *
09
b0000000000000000 =
b0000000000000000 ?
1:
b0000000000000001 =
0<
b10 @
b0000000000000001 7
b10 6
#360
0!
0#
0,
#365
1!
1#
1,
b10 5
b00 6
0;
12
1)
0%
0.
0(
01
b10 6
#370
0!
0#
0,
#375
1!
1#
1,
b0000000100101011 &
b0000000100101011 /
b0000000110100001 '
b0000000110100001 0
1%
1.
1(
11
b00 6
#380
0!
0#
0,
#385
1!
1#
1,
b00 5
b01 6
1;
1<
02
0)
0A
b00 @
b0000000110100001 7
b0000000100101011 8
#390
0!
0#
0,
#395
1!
1#
1,
b0000000100101011 >
b0000000100101011 3
b0000000100101011 *
b0000000100101011 =
b0000000110100001 ?
0:
19
b1111111110001010 =
b01 5
1A
b01 @
b0000000100101011 7
b0000000110100001 8
#400
0!
0#
0,
#405
1!
1#
1,
b0000000110100001 >
b0000000110100001 3
b0000000110100001 *
09
b0000000000000000 =
b0000000100101011 ?
b0000000001110110 =
0<
b10 @
b0000000001110110 8
b0000000110100001 7
#410
0!
0#
0,
#415
1!
1#
1,
b0000000001110110 >
b0000000001110110 3
b0000000001110110 *
19
b1111111101001011 =
1<
b01 @
b0000000100101011 8
b0000000001110110 7
#420
0!
0#
0,
#425
1!
1#
1,
b0000000100101011 >
b0000000100101011 3
b0000000100101011 *
09
b0000000000000000 =
b0000000001110110 ?
b0000000010110101 =
0<
b10 @
b0000000010110101 8
b0000000100101011 7
#430
0!
0#
0,
#435
1!
1#
1,
b0000000010110101 >
b0000000010110101 3
b0000000010110101 *
b0000000000111111 =
b0000000000111111 8
b0000000010110101 7
#440
0!
0#
0,
#445
1!
1#
1,
b0000000000111111 >
b0000000000111111 3
b0000000000111111 *
19
b1111111111001001 =
1<
b01 @
b0000000001110110 8
b0000000000111111 7
#450
0!
0#
0,
#455
1!
1#
1,
b0000000001110110 >
b0000000001110110 3
b0000000001110110 *
09
b0000000000000000 =
b0000000000111111 ?
b0000000000110111 =
0<
b10 @
b0000000000110111 8
b0000000001110110 7
#460
0!
0#
0,
#465
1!
1#
1,
b0000000000110111 >
b0000000000110111 3
b0000000000110111 *
19
b1111111111111000 =
1<
b01 @
b0000000000111111 8
b0000000000110111 7
#470
0!
0#
0,
#475
1!
1#
1,
b0000000000111111 >
b0000000000111111 3
b0000000000111111 *
09
b0000000000000000 =
b0000000000110111 ?
b0000000000001000 =
0<
b10 @
b0000000000001000 8
b0000000000111111 7
#480
0!
0#
0,
#485
1!
1#
1,
b0000000000001000 >
b0000000000001000 3
b0000000000001000 *
19
b1111111111010001 =
1<
b01 @
b0000000000110111 8
b0000000000001000 7
#490
0!
0#
0,
#495
1!
1#
1,
b0000000000110111 >
b0000000000110111 3
b0000000000110111 *
09
b0000000000000000 =
b0000000000001000 ?
b0000000000101111 =
0<
b10 @
b0000000000101111 8
b0000000000110111 7
#500
0!
0#
0,
#505
1!
1#
1,
b0000000000101111 >
b0000000000101111 3
b0000000000101111 *
b0000000000100111 =
b0000000000100111 8
b0000000000101111 7
#510
0!
0#
0,
#515
1!
1#
1,
b0000000000100111 >
b0000000000100111 3
b0000000000100111 *
b0000000000011111 =
b0000000000011111 8
b0000000000100111 7
#520
0!
0#
0,
#525
1!
1#
1,
b0000000000011111 >
b0000000000011111 3
b0000000000011111 *
b0000000000010111 =
b0000000000010111 8
b0000000000011111 7
#530
0!
0#
0,
#535
1!
1#
1,
b0000000000010111 >
b0000000000010111 3
b0000000000010111 *
b0000000000001111 =
b0000000000001111 8
b0000000000010111 7
#540
0!
0#
0,
#545
1!
1#
1,
b0000000000001111 >
b0000000000001111 3
b0000000000001111 *
b0000000000000111 =
b0000000000000111 8
b0000000000001111 7
#550
0!
0#
0,
#555
1!
1#
1,
b0000000000000111 >
b0000000000000111 3
b0000000000000111 *
19
b1111111111111111 =
1<
b01 @
b0000000000001000 8
b0000000000000111 7
#560
0!
0#
0,
#565
1!
1#
1,
b0000000000001000 >
b0000000000001000 3
b0000000000001000 *
09
b0000000000000000 =
b0000000000000111 ?
b0000000000000001 =
0<
b10 @
b0000000000000001 8
b0000000000001000 7
#570
0!
0#
0,
#575
1!
1#
1,
b0000000000000001 >
b0000000000000001 3
b0000000000000001 *
19
b1111111111111010 =
1<
b01 @
b0000000000000111 8
b0000000000000001 7
#580
0!
0#
0,
#585
1!
1#
1,
b0000000000000111 >
b0000000000000111 3
b0000000000000111 *
09
b0000000000000000 =
b0000000000000001 ?
b0000000000000110 =
0<
b10 @
b0000000000000110 8
b0000000000000111 7
#590
0!
0#
0,
#595
1!
1#
1,
b0000000000000110 >
b0000000000000110 3
b0000000000000110 *
b0000000000000101 =
b0000000000000101 8
b0000000000000110 7
#600
0!
0#
0,
#605
1!
1#
1,
b0000000000000101 >
b0000000000000101 3
b0000000000000101 *
b0000000000000100 =
b0000000000000100 8
b0000000000000101 7
#610
0!
0#
0,
#615
1!
1#
1,
b0000000000000100 >
b0000000000000100 3
b0000000000000100 *
b0000000000000011 =
b0000000000000011 8
b0000000000000100 7
#620
0!
0#
0,
#625
1!
1#
1,
b0000000000000011 >
b0000000000000011 3
b0000000000000011 *
b0000000000000010 =
b0000000000000010 8
b0000000000000011 7
#630
0!
0#
0,
#635
1!
1#
1,
b0000000000000010 >
b0000000000000010 3
b0000000000000010 *
b0000000000000001 =
b0000000000000001 8
b0000000000000010 7
#640
0!
0#
0,
#645
1!
1#
1,
b0000000000000001 >
b0000000000000001 3
b0000000000000001 *
b0000000000000000 =
b0000000000000000 8
b0000000000000001 7
#650
0!
0#
0,
#655
1!
1#
1,
b0000000000000000 >
b0000000000000000 3
b0000000000000000 *
19
b1111111111111111 =
1<
b01 @
b0000000000000001 8
b0000000000000000 7
#660
0!
0#
0,
#665
1!
1#
1,
b0000000000000001 >
b0000000000000001 3
b0000000000000001 *
09
b0000000000000000 =
b0000000000000000 ?
1:
b0000000000000001 =
0<
b10 @
b0000000000000001 7
b10 6
#670
0!
0#
0,
#675
1!
1#
1,
b10 5
b00 6
0;
12
1)
0%
0.
0(
01
b10 6
#680
0!
0#
0,
#685
1!
1#
1,
b0000001000001001 &
b0000001000001001 /
b0000001100111110 '
b0000001100111110 0
1%
1.
1(
11
b00 6
#690
0!
0#
0,
#695
1!
1#
1,
b00 5
b01 6
1;
1<
02
0)
0A
b00 @
b0000001100111110 7
b0000001000001001 8
#700
0!
0#
0,
#705
1!
1#
1,
b0000001000001001 >
b0000001000001001 3
b0000001000001001 *
b0000001000001001 =
b0000001100111110 ?
0:
19
b1111111011001011 =
b01 5
1A
b01 @
b0000001000001001 7
b0000001100111110 8
#710
0!
0#
0,
#715
1!
1#
1,
b0000001100111110 >
b0000001100111110 3
b0000001100111110 *
09
b0000000000000000 =
b0000001000001001 ?
b0000000100110101 =
0<
b10 @
b0000000100110101 8
b0000001100111110 7
#720
0!
0#
0,
#725
1!
1#
1,
b0000000100110101 >
b0000000100110101 3
b0000000100110101 *
19
b1111111100101100 =
1<
b01 @
b0000001000001001 8
b0000000100110101 7
#730
0!
0#
0,
#735
1!
1#
1,
b0000001000001001 >
b0000001000001001 3
b0000001000001001 *
09
b0000000000000000 =
b0000000100110101 ?
b0000000011010100 =
0<
b10 @
b0000000011010100 8
b0000001000001001 7
#740
0!
0#
0,
#745
1!
1#
1,
b0000000011010100 >
b0000000011010100 3
b0000000011010100 *
19
b1111111110011111 =
1<
b01 @
b0000000100110101 8
b0000000011010100 7
#750
0!
0#
0,
#755
1!
1#
1,
b0000000100110101 >
b0000000100110101 3
b0000000100110101 *
09
b0000000000000000 =
b0000000011010100 ?
b0000000001100001 =
0<
b10 @
b0000000001100001 8
b0000000100110101 7
#760
0!
0#
0,
#765
1!
1#
1,
b0000000001100001 >
b0000000001100001 3
b0000000001100001 *
19
b1111111110001101 =
1<
b01 @
b0000000011010100 8
b0000000001100001 7
#770
0!
0#
0,
#775
1!
1#
1,
b0000000011010100 >
b0000000011010100 3
b0000000011010100 *
09
b0000000000000000 =
b0000000001100001 ?
b0000000001110011 =
0<
b10 @
b0000000001110011 8
b0000000011010100 7
#780
0!
0#
0,
#785
1!
1#
1,
b0000000001110011 >
b0000000001110011 3
b0000000001110011 *
b0000000000010010 =
b0000000000010010 8
b0000000001110011 7
#790
0!
0#
0,
#795
1!
1#
1,
b0000000000010010 >
b0000000000010010 3
b0000000000010010 *
19
b1111111110110001 =
1<
b01 @
b0000000001100001 8
b0000000000010010 7
#800
0!
0#
0,
#805
1!
1#
1,
b0000000001100001 >
b0000000001100001 3
b0000000001100001 *
09
b0000000000000000 =
b0000000000010010 ?
b0000000001001111 =
0<
b10 @
b0000000001001111 8
b0000000001100001 7
#810
0!
0#
0,
#815
1!
1#
1,
b0000000001001111 >
b0000000001001111 3
b0000000001001111 *
b0000000000111101 =
b0000000000111101 8
b0000000001001111 7
#820
0!
0#
0,
#825
1!
1#
1,
b0000000000111101 >
b0000000000111101 3
b0000000000111101 *
b0000000000101011 =
b0000000000101011 8
b0000000000111101 7
#830
0!
0#
0,
#835
1!
1#
1,
b0000000000101011 >
b0000000000101011 3
b0000000000101011 *
b0000000000011001 =
b0000000000011001 8
b0000000000101011 7
#840
0!
0#
0,
#845
1!
1#
1,
b0000000000011001 >
b0000000000011001 3
b0000000000011001 *
b0000000000000111 =
b0000000000000111 8
b0000000000011001 7
#850
0!
0#
0,
#855
1!
1#
1,
b0000000000000111 >
b0000000000000111 3
b0000000000000111 *
19
b1111111111110101 =
1<
b01 @
b0000000000010010 8
b0000000000000111 7
#860
0!
0#
0,
#865
1!
1#
1,
b0000000000010010 >
b0000000000010010 3
b0000000000010010 *
09
b0000000000000000 =
b0000000000000111 ?
b0000000000001011 =
0<
b10 @
b0000000000001011 8
b0000000000010010 7
#870
0!
0#
0,
#875
1!
1#
1,
b0000000000001011 >
b0000000000001011 3
b0000000000001011 *
b0000000000000100 =
b0000000000000100 8
b0000000000001011 7
#880
0!
0#
0,
#885
1!
1#
1,
b0000000000000100 >
b0000000000000100 3
b0000000000000100 *
19
b1111111111111101 =
1<
b01 @
b0000000000000111 8
b0000000000000100 7
#890
0!
0#
0,
#895
1!
1#
1,
b0000000000000111 >
b0000000000000111 3
b0000000000000111 *
09
b0000000000000000 =
b0000000000000100 ?
b0000000000000011 =
0<
b10 @
b0000000000000011 8
b0000000000000111 7
#900
0!
0#
0,
#905
1!
1#
1,
b0000000000000011 >
b0000000000000011 3
b0000000000000011 *
19
b1111111111111111 =
1<
b01 @
b0000000000000100 8
b0000000000000011 7
#910
0!
0#
0,
#915
1!
1#
1,
b0000000000000100 >
b0000000000000100 3
b0000000000000100 *
09
b0000000000000000 =
b0000000000000011 ?
b0000000000000001 =
0<
b10 @
b0000000000000001 8
b0000000000000100 7
#920
0!
0#
0,
#925
1!
1#
1,
b0000000000000001 >
b0000000000000001 3
b0000000000000001 *
19
b1111111111111110 =
1<
b01 @
b0000000000000011 8
b0000000000000001 7
#930
0!
0#
0,
#935
1!
1#
1,
b0000000000000011 >
b0000000000000011 3
b0000000000000011 *
09
b0000000000000000 =
b0000000000000001 ?
b0000000000000010 =
0<
b10 @
b0000000000000010 8
b0000000000000011 7
#940
0!
0#
0,
#945
1!
1#
1,
b0000000000000010 >
b0000000000000010 3
b0000000000000010 *
b0000000000000001 =
b0000000000000001 8
b0000000000000010 7
#950
0!
0#
0,
#955
1!
1#
1,
b0000000000000001 >
b0000000000000001 3
b0000000000000001 *
b0000000000000000 =
b0000000000000000 8
b0000000000000001 7
#960
0!
0#
0,
#965
1!
1#
1,
b0000000000000000 >
b0000000000000000 3
b0000000000000000 *
19
b1111111111111111 =
1<
b01 @
b0000000000000001 8
b0000000000000000 7
#970
0!
0#
0,
#975
1!
1#
1,
b0000000000000001 >
b0000000000000001 3
b0000000000000001 *
09
b0000000000000000 =
b0000000000000000 ?
1:
b0000000000000001 =
0<
b10 @
b0000000000000001 7
b10 6
#980
0!
0#
0,
#985
1!
1#
1,
b10 5
b00 6
0;
12
1)
0%
0.
0(
01
b10 6
#990
0!
0#
0,
#995
1!
1#
1,
b0000000010110111 &
b0000000010110111 /
b0000001100110111 '
b0000001100110111 0
1%
1.
1(
11
b00 6
#1000
0!
0#
0,
#1005
1!
1#
1,
b00 5
b01 6
1;
1<
02
0)
0A
b00 @
b0000001100110111 7
b0000000010110111 8
#1010
0!
0#
0,
#1015
1!
1#
1,
b0000000010110111 >
b0000000010110111 3
b0000000010110111 *
b0000000010110111 =
b0000001100110111 ?
0:
19
b1111110110000000 =
b01 5
1A
b01 @
b0000000010110111 7
b0000001100110111 8
#1020
0!
0#
0,
#1025
1!
1#
1,
b0000001100110111 >
b0000001100110111 3
b0000001100110111 *
09
b0000000000000000 =
b0000000010110111 ?
b0000001010000000 =
0<
b10 @
b0000001010000000 8
b0000001100110111 7
#1030
0!
0#
0,
#1035
1!
1#
1,
b0000001010000000 >
b0000001010000000 3
b0000001010000000 *
b0000000111001001 =
b0000000111001001 8
b0000001010000000 7
#1040
0!
0#
0,
#1045
1!
1#
1,
b0000000111001001 >
b0000000111001001 3
b0000000111001001 *
b0000000100010010 =
b0000000100010010 8
b0000000111001001 7
#1050
0!
0#
0,
#1055
1!
1#
1,
b0000000100010010 >
b0000000100010010 3
b0000000100010010 *
b0000000001011011 =
b0000000001011011 8
b0000000100010010 7
#1060
0!
0#
0,
#1065
1!
1#
1,
b0000000001011011 >
b0000000001011011 3
b0000000001011011 *
19
b1111111110100100 =
1<
b01 @
b0000000010110111 8
b0000000001011011 7
#1070
0!
0#
0,
#1075
1!
1#
1,
b0000000010110111 >
b0000000010110111 3
b0000000010110111 *
09
b0000000000000000 =
b0000000001011011 ?
b0000000001011100 =
0<
b10 @
b0000000001011100 8
b0000000010110111 7
#1080
0!
0#
0,
#1085
1!
1#
1,
b0000000001011100 >
b0000000001011100 3
b0000000001011100 *
b0000000000000001 =
b0000000000000001 8
b0000000001011100 7
#1090
0!
0#
0,
#1095
1!
1#
1,
b0000000000000001 >
b0000000000000001 3
b0000000000000001 *
19
b1111111110100110 =
1<
b01 @
b0000000001011011 8
b0000000000000001 7
#1100
0!
0#
0,
#1105
1!
1#
1,
b0000000001011011 >
b0000000001011011 3
b0000000001011011 *
09
b0000000000000000 =
b0000000000000001 ?
b0000000001011010 =
0<
b10 @
b0000000001011010 8
b0000000001011011 7
#1110
0!
0#
0,
#1115
1!
1#
1,
b0000000001011010 >
b0000000001011010 3
b0000000001011010 *
b0000000001011001 =
b0000000001011001 8
b0000000001011010 7
#1120
0!
0#
0,
#1125
1!
1#
1,
b0000000001011001 >
b0000000001011001 3
b0000000001011001 *
b0000000001011000 =
b0000000001011000 8
b0000000001011001 7
#1130
0!
0#
0,
#1135
1!
1#
1,
b0000000001011000 >
b0000000001011000 3
b0000000001011000 *
b0000000001010111 =
b0000000001010111 8
b0000000001011000 7
#1140
0!
0#
0,
#1145
1!
1#
1,
b0000000001010111 >
b0000000001010111 3
b0000000001010111 *
b0000000001010110 =
b0000000001010110 8
b0000000001010111 7
#1150
0!
0#
0,
#1155
1!
1#
1,
b0000000001010110 >
b0000000001010110 3
b0000000001010110 *
b0000000001010101 =
b0000000001010101 8
b0000000001010110 7
#1160
0!
0#
0,
#1165
1!
1#
1,
b0000000001010101 >
b0000000001010101 3
b0000000001010101 *
b0000000001010100 =
b0000000001010100 8
b0000000001010101 7
#1170
0!
0#
0,
#1175
1!
1#
1,
b0000000001010100 >
b0000000001010100 3
b0000000001010100 *
b0000000001010011 =
b0000000001010011 8
b0000000001010100 7
#1180
0!
0#
0,
#1185
1!
1#
1,
b0000000001010011 >
b0000000001010011 3
b0000000001010011 *
b0000000001010010 =
b0000000001010010 8
b0000000001010011 7
#1190
0!
0#
0,
#1195
1!
1#
1,
b0000000001010010 >
b0000000001010010 3
b0000000001010010 *
b0000000001010001 =
b0000000001010001 8
b0000000001010010 7
#1200
0!
0#
0,
#1205
1!
1#
1,
b0000000001010001 >
b0000000001010001 3
b0000000001010001 *
b0000000001010000 =
b0000000001010000 8
b0000000001010001 7
#1210
0!
0#
0,
#1215
1!
1#
1,
b0000000001010000 >
b0000000001010000 3
b0000000001010000 *
b0000000001001111 =
b0000000001001111 8
b0000000001010000 7
#1220
0!
0#
0,
#1225
1!
1#
1,
b0000000001001111 >
b0000000001001111 3
b0000000001001111 *
b0000000001001110 =
b0000000001001110 8
b0000000001001111 7
#1230
0!
0#
0,
#1235
1!
1#
1,
b0000000001001110 >
b0000000001001110 3
b0000000001001110 *
b0000000001001101 =
b0000000001001101 8
b0000000001001110 7
#1240
0!
0#
0,
#1245
1!
1#
1,
b0000000001001101 >
b0000000001001101 3
b0000000001001101 *
b0000000001001100 =
b0000000001001100 8
b0000000001001101 7
#1250
0!
0#
0,
#1255
1!
1#
1,
b0000000001001100 >
b0000000001001100 3
b0000000001001100 *
b0000000001001011 =
b0000000001001011 8
b0000000001001100 7
#1260
0!
0#
0,
#1265
1!
1#
1,
b0000000001001011 >
b0000000001001011 3
b0000000001001011 *
b0000000001001010 =
b0000000001001010 8
b0000000001001011 7
#1270
0!
0#
0,
#1275
1!
1#
1,
b0000000001001010 >
b0000000001001010 3
b0000000001001010 *
b0000000001001001 =
b0000000001001001 8
b0000000001001010 7
#1280
0!
0#
0,
#1285
1!
1#
1,
b0000000001001001 >
b0000000001001001 3
b0000000001001001 *
b0000000001001000 =
b0000000001001000 8
b0000000001001001 7
#1290
0!
0#
0,
#1295
1!
1#
1,
b0000000001001000 >
b0000000001001000 3
b0000000001001000 *
b0000000001000111 =
b0000000001000111 8
b0000000001001000 7
#1300
0!
0#
0,
#1305
1!
1#
1,
b0000000001000111 >
b0000000001000111 3
b0000000001000111 *
b0000000001000110 =
b0000000001000110 8
b0000000001000111 7
#1310
0!
0#
0,
#1315
1!
1#
1,
b0000000001000110 >
b0000000001000110 3
b0000000001000110 *
b0000000001000101 =
b0000000001000101 8
b0000000001000110 7
#1320
0!
0#
0,
#1325
1!
1#
1,
b0000000001000101 >
b0000000001000101 3
b0000000001000101 *
b0000000001000100 =
b0000000001000100 8
b0000000001000101 7
#1330
0!
0#
0,
#1335
1!
1#
1,
b0000000001000100 >
b0000000001000100 3
b0000000001000100 *
b0000000001000011 =
b0000000001000011 8
b0000000001000100 7
#1340
0!
0#
0,
#1345
1!
1#
1,
b0000000001000011 >
b0000000001000011 3
b0000000001000011 *
b0000000001000010 =
b0000000001000010 8
b0000000001000011 7
#1350
0!
0#
0,
#1355
1!
1#
1,
b0000000001000010 >
b0000000001000010 3
b0000000001000010 *
b0000000001000001 =
b0000000001000001 8
b0000000001000010 7
#1360
0!
0#
0,
#1365
1!
1#
1,
b0000000001000001 >
b0000000001000001 3
b0000000001000001 *
b0000000001000000 =
b0000000001000000 8
b0000000001000001 7
#1370
0!
0#
0,
#1375
1!
1#
1,
b0000000001000000 >
b0000000001000000 3
b0000000001000000 *
b0000000000111111 =
b0000000000111111 8
b0000000001000000 7
#1380
0!
0#
0,
#1385
1!
1#
1,
b0000000000111111 >
b0000000000111111 3
b0000000000111111 *
b0000000000111110 =
b0000000000111110 8
b0000000000111111 7
#1390
0!
0#
0,
#1395
1!
1#
1,
b0000000000111110 >
b0000000000111110 3
b0000000000111110 *
b0000000000111101 =
b0000000000111101 8
b0000000000111110 7
#1400
0!
0#
0,
#1405
1!
1#
1,
b0000000000111101 >
b0000000000111101 3
b0000000000111101 *
b0000000000111100 =
b0000000000111100 8
b0000000000111101 7
#1410
0!
0#
0,
#1415
1!
1#
1,
b0000000000111100 >
b0000000000111100 3
b0000000000111100 *
b0000000000111011 =
b0000000000111011 8
b0000000000111100 7
#1420
0!
0#
0,
#1425
1!
1#
1,
b0000000000111011 >
b0000000000111011 3
b0000000000111011 *
b0000000000111010 =
b0000000000111010 8
b0000000000111011 7
#1430
0!
0#
0,
#1435
1!
1#
1,
b0000000000111010 >
b0000000000111010 3
b0000000000111010 *
b0000000000111001 =
b0000000000111001 8
b0000000000111010 7
#1440
0!
0#
0,
#1445
1!
1#
1,
b0000000000111001 >
b0000000000111001 3
b0000000000111001 *
b0000000000111000 =
b0000000000111000 8
b0000000000111001 7
#1450
0!
0#
0,
#1455
1!
1#
1,
b0000000000111000 >
b0000000000111000 3
b0000000000111000 *
b0000000000110111 =
b0000000000110111 8
b0000000000111000 7
#1460
0!
0#
0,
#1465
1!
1#
1,
b0000000000110111 >
b0000000000110111 3
b0000000000110111 *
b0000000000110110 =
b0000000000110110 8
b0000000000110111 7
#1470
0!
0#
0,
#1475
1!
1#
1,
b0000000000110110 >
b0000000000110110 3
b0000000000110110 *
b0000000000110101 =
b0000000000110101 8
b0000000000110110 7
#1480
0!
0#
0,
#1485
1!
1#
1,
b0000000000110101 >
b0000000000110101 3
b0000000000110101 *
b0000000000110100 =
b0000000000110100 8
b0000000000110101 7
#1490
0!
0#
0,
#1495
1!
1#
1,
b0000000000110100 >
b0000000000110100 3
b0000000000110100 *
b0000000000110011 =
b0000000000110011 8
b0000000000110100 7
#1500
0!
0#
0,
#1505
1!
1#
1,
b0000000000110011 >
b0000000000110011 3
b0000000000110011 *
b0000000000110010 =
b0000000000110010 8
b0000000000110011 7
#1510
0!
0#
0,
#1515
1!
1#
1,
b0000000000110010 >
b0000000000110010 3
b0000000000110010 *
b0000000000110001 =
b0000000000110001 8
b0000000000110010 7
#1520
0!
0#
0,
#1525
1!
1#
1,
b0000000000110001 >
b0000000000110001 3
b0000000000110001 *
b0000000000110000 =
b0000000000110000 8
b0000000000110001 7
#1530
0!
0#
0,
#1535
1!
1#
1,
b0000000000110000 >
b0000000000110000 3
b0000000000110000 *
b0000000000101111 =
b0000000000101111 8
b0000000000110000 7
#1540
0!
0#
0,
